…
Import data

``` r
data("lidar")
```

Look at the data

``` r
lidar
```

    ## # A tibble: 221 × 2
    ##    range logratio
    ##    <dbl>    <dbl>
    ##  1   390  -0.0504
    ##  2   391  -0.0601
    ##  3   393  -0.0419
    ##  4   394  -0.0510
    ##  5   396  -0.0599
    ##  6   397  -0.0284
    ##  7   399  -0.0596
    ##  8   400  -0.0399
    ##  9   402  -0.0294
    ## 10   403  -0.0395
    ## # ℹ 211 more rows
…
